<svg width="98" height="45" viewBox="0 0 98 45" fill="none" xmlns="http://www.w3.org/2000/svg">
<path d="M83.3012 45H90.4659C91.6042 45 92.198 43.6513 91.4269 42.8174L87.8447 38.9425C87.3271 38.3829 86.44 38.3829 85.9224 38.9425L82.3402 42.8174C81.5691 43.6513 82.1631 45 83.3012 45Z" fill="#44DCC4"/>
<path d="M44.9541 10.7777C43.4193 10.7777 42.1752 12.0169 42.1752 13.5454V23.3263C42.1752 26.2821 39.7608 28.6865 36.7931 28.6865H36.4414C33.4736 28.6865 31.0593 26.2821 31.0593 23.3263V13.5454C31.0593 12.0169 29.8152 10.7777 28.2804 10.7777C26.7456 10.7777 25.5015 12.0169 25.5015 13.5454V23.3263C25.5015 29.3344 30.4092 34.2222 36.4414 34.2222H36.7931C42.8253 34.2222 47.733 29.3344 47.733 23.3263V13.5454C47.733 12.0169 46.4889 10.7777 44.9541 10.7777Z" fill="white"/>
<path d="M20.6221 11.0344C19.2297 10.391 17.5776 10.9946 16.9321 12.3813L11.1163 24.8743L5.30072 12.3813C4.65509 10.9944 3.00279 10.3916 1.6107 11.0344C0.218238 11.6773 -0.387035 13.3227 0.258414 14.7096L8.59518 32.6186C9.05045 33.5963 10.0342 34.2222 11.1163 34.2222C12.1987 34.2222 13.1824 33.5963 13.6375 32.6186L21.9744 14.7096C22.6201 13.3227 22.0146 11.6773 20.6221 11.0344Z" fill="white"/>
<path d="M97.7418 30.2903L89.4048 12.3815C88.9496 11.4034 87.966 10.7779 86.8837 10.7779C85.8014 10.7779 84.8176 11.4034 84.3623 12.3815L76.0256 30.2903C75.3799 31.6771 75.9856 33.3228 77.3778 33.9656C78.7705 34.6083 80.4224 34.0051 81.0681 32.6186L86.8837 20.1257L92.6993 32.6186C93.1696 33.6287 94.1736 34.2229 95.2225 34.2229C95.6136 34.2229 96.011 34.1403 96.3893 33.9656C97.7818 33.3228 98.3874 31.6771 97.7418 30.2903Z" fill="white"/>
<path d="M7.53413 7.15938e-05H14.6988C15.8371 7.15938e-05 16.4309 1.34878 15.6599 2.18272L12.0776 6.05757C11.56 6.6172 10.6729 6.6172 10.1553 6.05757L6.57309 2.18272C5.80205 1.34878 6.39605 7.15938e-05 7.53413 7.15938e-05Z" fill="#44DCC4"/>
<path d="M61.75 28.6867C58.8881 28.6867 56.56 26.3681 56.56 23.5176V21.4824C56.56 18.6323 58.8881 16.3133 61.75 16.3133C64.6119 16.3133 66.9401 18.6323 66.9401 21.4824V23.5176C66.9401 26.3681 64.6119 28.6867 61.75 28.6867ZM61.75 10.7779C55.8237 10.7779 51.002 15.5798 51.002 21.4824V23.5176C51.002 29.42 55.8237 34.2221 61.75 34.2221C63.6314 34.2221 65.4004 33.7369 66.9401 32.8875V34.1043C66.9401 37.06 64.5258 39.4646 61.5582 39.4646H61.2063C60.5509 39.4646 59.9117 39.349 59.3064 39.1218C57.8719 38.5826 56.2671 39.3032 55.7253 40.734C55.1833 42.1638 55.908 43.7609 57.344 44.3005C58.5787 44.7646 59.8781 45 61.2063 45H61.5582C67.5904 45 72.4981 40.1123 72.4981 34.1043V21.4824C72.4981 15.5798 67.6764 10.7779 61.75 10.7779Z" fill="white"/>
</svg>
