<svg width="24" height="24" viewBox="0 0 24 24" fill="none" xmlns="http://www.w3.org/2000/svg">
<g clip-path="url(#clip0)">
<path d="M1.24923 10.5444L3.17709 9.66411L4.87873 6.94936C5.37053 6.16248 6.2361 5.68543 7.16561 5.69035H14.4148C15.2558 5.69035 16.0525 6.07887 16.5639 6.74772L18.7623 9.62476L22.4262 10.628C23.3557 10.8838 24 11.7346 24 12.6985V14.1002C24 15.2854 23.0557 16.2641 21.8705 16.2641H21.5557C21.1771 17.7247 19.6869 18.6002 18.2262 18.2215C17.2672 17.9706 16.5148 17.2231 16.2689 16.2641H8.00659C7.6279 17.7247 6.13774 18.6002 4.67709 18.2215C3.71807 17.9706 2.96562 17.2231 2.71971 16.2641H2.12955C0.944308 16.2641 4.86076e-05 15.2854 4.86076e-05 14.1002V12.5018C-0.00486942 11.6608 0.486933 10.8936 1.24923 10.5444ZM18.9148 17.3165C19.8787 17.3165 20.6607 16.5346 20.6607 15.5707C20.6607 14.6067 19.8787 13.8248 18.9148 13.8248C17.9508 13.8248 17.1689 14.6067 17.1689 15.5707C17.1639 16.5297 17.9459 17.3116 18.9148 17.3165ZM5.36561 17.3165C6.32954 17.3165 7.11151 16.5346 7.11151 15.5707C7.11151 14.6067 6.32954 13.8248 5.36561 13.8248C4.40168 13.8248 3.61971 14.6067 3.61971 15.5707C3.6148 16.5297 4.39676 17.3116 5.36561 17.3165ZM2.12955 15.2805H2.65086C2.81316 13.7805 4.16561 12.6985 5.66561 12.8657C6.93938 13.0034 7.94265 14.0116 8.08036 15.2805H16.2C16.3623 13.7805 17.7148 12.6985 19.2148 12.8657C20.4885 13.0034 21.4918 14.0116 21.6295 15.2805H21.8754C22.5197 15.2805 23.0213 14.7444 23.0213 14.1002V12.6985C23.0262 12.1723 22.6771 11.7149 22.1705 11.5723L18.3394 10.5248C18.2361 10.4953 18.1426 10.4362 18.0787 10.3477L15.7869 7.3428C15.4574 6.91985 14.9508 6.67395 14.4148 6.67395H7.16561C6.57545 6.66903 6.01971 6.96903 5.70987 7.47067L3.92955 10.3133C3.88037 10.3969 3.80168 10.4608 3.71807 10.5002L1.66234 11.4395C1.24923 11.6313 0.983653 12.0444 0.988571 12.5018V14.1002H0.983653C0.983653 14.7444 1.48529 15.2805 2.12955 15.2805Z" fill="#3B15A2"/>
</g>
<defs>
<clipPath id="clip0">
<rect width="24" height="24" fill="white" transform="matrix(-1 0 0 1 24 0)"/>
</clipPath>
</defs>
</svg>
